Id,1,2,3,4,5,6,7,8,9,10,11,12,13,14,15,16,17,18,19,20,What is your occupation?,If other please specify,How many years have you been working as a Software developer?,How many years have you been working with Java?,What is your highest achieved higher education degree?
3,3,4,2,4,5,1,3,2,4,3,4,4,4,4,3,3,5,2,3,4,programmer,,5-10,0-5,Master
4,4,4,1,3,5,1,5,1,3,1,4,1,1,5,3,4,1,4,3,4,other,Grafisk DEsigner,n/a,n/a,Bachelor
5,2,4,3,3,3,2,3,2,4,4,4,4,3,4,1,3,4,3,3,4,programmer,,5-10,5-10,Master
8,1,4,3,2,2,2,4,2,4,5,3,5,4,2,2,3,5,2,1,4,programmer,,10-20,n/a,Master
12,1,2,1,3,4,1,1,2,3,3,3,3,1,2,1,3,2,2,3,2,programmer,,0-5,0-5,Bachelor
14,2,5,2,3,5,1,4,2,4,3,2,4,2,5,3,2,4,2,3,5,programmer,,10-20,10-20,Master
15,1,3,4,4,3,1,4,2,4,5,4,3,3,4,4,2,2,3,4,4,programmer,,5-10,5-10,Master
17,3,4,1,2,5,1,5,1,5,5,3,2,2,4,2,3,3,4,2,5,programmer,,5-10,5-10,Master
19,2,3,1,3,3,1,4,1,4,4,3,2,3,4,1,1,2,4,4,3,programmer,,5-10,10-20,Master
21,3,5,3,5,5,3,4,4,5,4,4,4,4,4,2,4,5,2,5,3,programmer,,0-5,0-5,Master
22,2,2,2,3,4,4,2,3,4,2,3,2,2,3,3,3,4,2,2,4,programmer,,5-10,5-10,Master
25,2,3,3,2,4,2,4,2,4,3,5,5,4,4,2,4,4,3,3,5,programmer,,10-20,n/a,Bachelor
26,3,4,4,5,3,4,3,3,5,5,5,5,2,5,2,3,4,5,5,5,programmer,,0-5,0-5,Master
27,2,3,3,3,4,2,4,3,3,3,2,4,2,4,2,3,3,4,1,4,programmer,,5-10,5-10,Master
28,1,2,1,3,4,2,2,2,4,2,1,4,2,4,2,3,3,2,2,5,programmer,,0-5,0-5,Master
30,2,2,3,4,3,1,3,2,2,2,3,2,3,2,2,2,2,1,2,5,programmer,,0-5,0-5,Master
31,1,1,2,2,2,1,1,1,2,1,2,4,1,2,1,2,4,2,2,3,programmer,,0-5,0-5,Bachelor
33,3,5,5,5,5,3,4,4,5,3,5,5,4,5,4,5,5,3,5,5,programmer,,0-5,0-5,Master
36,4,5,4,4,5,2,4,3,5,5,4,5,5,2,1,3,5,2,4,5,programmer,,5-10,5-10,Master
